 Fermi distribution function
 
 Calculation with static geometry
 

********************************************************************************
  iSCC Total electronic   Diff electronic      SCC error    
    1   -0.26183405E+01    0.00000000E+00    0.15747302E+00
********************************************************************************
 

 Net atomic charges (e)
  Atom       Net charge
     1      -0.00000000
     2       0.00000000
 
 COMPONENT = q
  
 Eigenvalues /H
   -0.50730567   -0.52245237   -0.53656855   -0.54961609   -0.56156654   -0.57238842   -0.58203556   -0.59044227
   -0.59753072   -0.60323344   -0.60753010   -0.61049252   -0.61232418   -0.61336499   -0.61402085   -0.61461473
   -0.61525857   -0.61586997   -0.61630414   -0.61645970   -0.61645970   -0.61627959   -0.61571736   -0.61473628
   -0.61334259   -0.61160313   -0.60957280   -0.60717801   -0.60417980   -0.60027036   -0.59521782   -0.58895223
   -0.58156862   -0.57328560   -0.56440054   -0.55525910   -0.54623511   -0.53770702   -0.53002013   -0.52343722
   -0.52343722   -0.52617034   -0.52986542   -0.53394455   -0.53806808   -0.54204337   -0.54575929   -0.54915079
   -0.55218069   -0.55483045   -0.55709544   -0.55898264   -0.56050961   -0.56170370   -0.56260104   -0.56324440
   -0.56367988   -0.56395207   -0.56409852   -0.56414438   -0.56414438   -0.56493355   -0.56718394   -0.57059706
   -0.57480437   -0.57945879   -0.58427683   -0.58904476   -0.59360918   -0.59786381   -0.60173673   -0.60517951
   -0.60815905   -0.61065399   -0.61265675   -0.61417966   -0.61526003   -0.61595738   -0.61633928   -0.61645970
   -0.50730567   -0.49118556   -0.47417200   -0.45636703   -0.43789134   -0.41888035   -0.39948110   -0.37984930
   -0.36014612   -0.34053426   -0.32117468   -0.30222622   -0.28385136   -0.26623217   -0.24960122   -0.23429363
   -0.22082373   -0.20996639   -0.20275243   -0.20019834   -0.20019834   -0.20447415   -0.21581372   -0.23149902
   -0.24948297   -0.26853822   -0.28792201   -0.30714449   -0.32585876   -0.34381975   -0.36087788   -0.37698600
   -0.39219890   -0.40664477   -0.42045991   -0.43370870   -0.44633475   -0.45817441   -0.46901742   -0.47867129
   -0.47867129   -0.47486396   -0.47004504   -0.46490801   -0.45990137   -0.45530506   -0.45128121   -0.44790059
   -0.44516157   -0.44301006   -0.44136030   -0.44011364   -0.43917289   -0.43845217   -0.43788339   -0.43742067
   -0.43704250   -0.43675039   -0.43656154   -0.43649572   -0.43649572   -0.43493124   -0.43035931   -0.42309189
   -0.41352136   -0.40203072   -0.38895394   -0.37457240   -0.35912704   -0.34283410   -0.32589963   -0.30853222
   -0.29095492   -0.27342056   -0.25623874   -0.23982834   -0.22481432   -0.21218074   -0.20340553   -0.20019834
   -0.30841731   -0.30809329   -0.30707050   -0.30523476   -0.30248045   -0.29875357   -0.29405438   -0.28842212
   -0.28192057   -0.27463034   -0.26664763   -0.25808747   -0.24909078   -0.23983612   -0.23055849   -0.22157953
   -0.21335236   -0.20651075   -0.20186342   -0.20019834   -0.20019834   -0.20207521   -0.20735248   -0.21522710
   -0.22486961   -0.23562244   -0.24700064   -0.25863386   -0.27021997   -0.28150282   -0.29226036   -0.30229171
   -0.31140332   -0.31939858   -0.32607318   -0.33121840   -0.33463594   -0.33616878   -0.33574978   -0.33346024
   -0.33346024   -0.33417348   -0.33413796   -0.33324480   -0.33140221   -0.32855206   -0.32468559   -0.31985307
   -0.31416357   -0.30777554   -0.30088264   -0.29370043   -0.28645760   -0.27939217   -0.27275133   -0.26679171
   -0.26177560   -0.25795828   -0.25556291   -0.25474559   -0.25474559   -0.25448356   -0.25369897   -0.25239671
   -0.25058600   -0.24828188   -0.24550684   -0.24229237   -0.23868036   -0.23472434   -0.23049077   -0.22606086
   -0.22153305   -0.21702658   -0.21268577   -0.20868374   -0.20522230   -0.20252180   -0.20079415   -0.20019834
   -0.30841731   -0.30809329   -0.30707050   -0.30523476   -0.30248045   -0.29875357   -0.29405438   -0.28842212
   -0.28192057   -0.27463034   -0.26664763   -0.25808747   -0.24909078   -0.23983612   -0.23055849   -0.22157953
   -0.21335236   -0.20651075   -0.20186342   -0.20019834   -0.20019834   -0.20059539   -0.20178414   -0.20375692
   -0.20649939   -0.20998840   -0.21418937   -0.21905369   -0.22451680   -0.23049731   -0.23689781   -0.24360736
   -0.25050541   -0.25746665   -0.26436610   -0.27108336   -0.27750573   -0.28352949   -0.28905985   -0.29400985
   -0.29400985   -0.29234250   -0.29043955   -0.28831981   -0.28600600   -0.28352483   -0.28090710   -0.27818769
   -0.27540562   -0.27260406   -0.26983011   -0.26713447   -0.26457081   -0.26219469   -0.26006201   -0.25822706
   -0.25673994   -0.25564378   -0.25497195   -0.25474559   -0.25474559   -0.25448356   -0.25369897   -0.25239671
   -0.25058600   -0.24828188   -0.24550684   -0.24229237   -0.23868036   -0.23472434   -0.23049077   -0.22606086
   -0.22153305   -0.21702658   -0.21268577   -0.20868374   -0.20522230   -0.20252180   -0.20079415   -0.20019834
   -0.07941470   -0.08424914   -0.08864392   -0.09256412   -0.09598580   -0.09889820   -0.10130421   -0.10321906
   -0.10466771   -0.10568289   -0.10630587   -0.10659136   -0.10661406   -0.10646919   -0.10625804   -0.10606081
   -0.10591707   -0.10582995   -0.10578615   -0.10577310   -0.10577310   -0.10534716   -0.10407455   -0.10197037
   -0.09905813   -0.09536760   -0.09093260   -0.08851391   -0.08669998   -0.08468372   -0.08249121   -0.08023750
   -0.07811101   -0.07632611   -0.07505179   -0.07435759   -0.07420867   -0.07450037   -0.07510054   -0.07587933
   -0.07587933   -0.07560086   -0.07531524   -0.07503004   -0.07476779   -0.07456702   -0.07448552   -0.07460604
   -0.07504342   -0.07594901   -0.07749986   -0.07985047   -0.08304086   -0.08691765   -0.09115200   -0.09533786
   -0.09907931   -0.10203206   -0.10392368   -0.10457522   -0.10457522   -0.10456839   -0.10454541   -0.10449846
   -0.10441329   -0.10426795   -0.10403217   -0.10366862   -0.10313786   -0.10240857   -0.10147418   -0.10037534
   -0.09922487   -0.09822876   -0.09769276   -0.09799179   -0.10074202   -0.10344267   -0.10517489   -0.10577310
   -0.07941470   -0.07418374   -0.06860531   -0.06273350   -0.05662865   -0.05036052   -0.04401303   -0.03769025
   -0.03152383   -0.02568325   -0.03476905   -0.04572389   -0.05617911   -0.06620514   -0.07578899   -0.08479433
   -0.09291191   -0.09961072   -0.10414837   -0.10577310   -0.10577310   -0.10438130   -0.10053507   -0.09670750
   -0.09395445   -0.09190838   -0.09019267   -0.08578923   -0.07997455   -0.07352539   -0.06647635   -0.05885641
   -0.05068377   -0.04195981   -0.03266296   -0.02274400   -0.01212407   -0.00069667    0.01166365    0.00675239
    0.00675239    0.01355461    0.01494803    0.00958764    0.00421470   -0.00109797   -0.00630425   -0.01137029
   -0.01626582   -0.02142399   -0.02859005   -0.03450194   -0.03903739   -0.04226728   -0.04442327   -0.04579098
   -0.04662126   -0.04709802   -0.04734046   -0.04741430   -0.04741430   -0.04779845   -0.04892923   -0.05074654
   -0.05316482   -0.05608910   -0.05942896   -0.06310659   -0.06705839   -0.07123123   -0.07557563   -0.08003720
   -0.08454757   -0.08901522   -0.09331699   -0.09729208   -0.10074202   -0.10344267   -0.10517489   -0.10577310
    0.10892754    0.10129777    0.08480708    0.06649743    0.04875304    0.03212946    0.01669722    0.00240325
   -0.01085087   -0.02319311   -0.03476905   -0.04572389   -0.05617911   -0.06620514   -0.07578899   -0.08479433
   -0.09291191   -0.09961072   -0.10414837   -0.10577310   -0.10577310   -0.10406608   -0.10033983   -0.09496070
   -0.08833936   -0.08106994   -0.07323560   -0.06469785   -0.05527101   -0.04487801   -0.03359435   -0.02159733
   -0.00910421    0.00364610    0.01634321    0.02840435    0.03817918    0.04013525    0.02739311    0.02508040
    0.02508040    0.02017573    0.01885056    0.02118087    0.01903872    0.01284105    0.00451420   -0.00445721
   -0.01326359   -0.02095925   -0.02541520   -0.02959356   -0.03344965   -0.03693512   -0.03999953   -0.04259267
   -0.04466722   -0.04618189   -0.04710443   -0.04741430   -0.04741430   -0.04779845   -0.04892923   -0.05074654
   -0.05316482   -0.05608910   -0.05942896   -0.06310659   -0.06705839   -0.07123123   -0.07557563   -0.08003720
   -0.08454757   -0.08901522   -0.09331699   -0.09729208   -0.09943912   -0.10195026   -0.10459633   -0.10577310
    0.10892754    0.10129777    0.08480708    0.06649743    0.04875304    0.03212946    0.01669722    0.00240325
   -0.01085087   -0.02319311   -0.02039272   -0.01596026   -0.01282245   -0.01158501   -0.01295495   -0.01734394
   -0.02417573   -0.03166297   -0.03747445   -0.03966717   -0.03966717   -0.03713097   -0.02970468   -0.01832447
   -0.00498927    0.00772281    0.01775198    0.02471351    0.02961198    0.03369336    0.03792726    0.04296391
    0.04913102    0.05639518    0.06437844    0.07249988    0.08018821    0.08704027    0.09286179    0.09762136
    0.09762136    0.08762677    0.07702645    0.06985354    0.06770817    0.07022200    0.07553899    0.08227679
    0.08976556    0.09770397    0.10595071    0.11443017    0.12308399    0.13183269    0.14052123    0.14881321
    0.15546189    0.15991785    0.16295262    0.16403825    0.16403825    0.15878677    0.14702997    0.13411940
    0.12241298    0.11252220    0.10440710    0.09782294    0.09248843    0.08615442    0.06859545    0.05105429
    0.03379894    0.01715209    0.00153804   -0.01246896   -0.02414682   -0.03278154   -0.03796221   -0.03966717
    0.21169481    0.22383845    0.24054575    0.20828785    0.18161863    0.15963765    0.14156999    0.12675680
    0.11464340    0.10476651    0.09674181    0.09025247    0.08503892    0.08089008    0.07763606    0.07514217
    0.07330412    0.07204438    0.07130944    0.07106790    0.07106790    0.07133501    0.07204358    0.07297318
    0.07389665    0.07467075    0.07525723    0.07569706    0.07607359    0.07648452    0.07702646    0.07778947
    0.07885764    0.08031290    0.08224087    0.08473843    0.08792492    0.09195970    0.09305257    0.10359298
    0.10359298    0.10193240    0.10156861    0.10218121    0.10355357    0.10555229    0.10809920    0.11115042
    0.11468142    0.11867635    0.12311914    0.12798485    0.13322928    0.13877485    0.14449036    0.15016259
    0.15600800    0.16103991    0.16344240    0.16403825    0.16403825    0.15878677    0.14702997    0.13411940
    0.12241298    0.11252220    0.10440710    0.09782294    0.09248843    0.08814660    0.08458316    0.08162824
    0.07915259    0.07706320    0.07529979    0.07383197    0.07265565    0.07178649    0.07124977    0.07106790
    0.21169481    0.22383845    0.25315062    0.29065635    0.32404759    0.30005541    0.27547204    0.25046509
    0.22526281    0.20015967    0.17553038    0.15186248    0.12981397    0.11027559    0.09432957    0.08287878
    0.07597563    0.07261143    0.07135018    0.07106790    0.07106790    0.07135806    0.07244597    0.07501859
    0.08033514    0.09021638    0.10636101    0.12927635    0.15852992    0.19382857    0.23534314    0.25418559
    0.22276431    0.19222676    0.16253150    0.13417631    0.10896845    0.09279568    0.09707100    0.10360277
    0.10360277    0.10862487    0.11640399    0.12422915    0.13191701    0.13936639    0.14649085    0.15320838
    0.15943775    0.16509648    0.17010047    0.17436666    0.17782253    0.18043019    0.18224140    0.18351124
    0.18486797    0.18718876    0.19026040    0.19181256    0.19181256    0.18994942    0.18450868    0.17588887
    0.16462679    0.15128373    0.13637066    0.12031881    0.10348190    0.08814660    0.08458316    0.08162824
    0.07915259    0.07706320    0.07529979    0.07383197    0.07265565    0.07178649    0.07124977    0.07106790
    0.32607989    0.27942329    0.25315062    0.29065635    0.33129149    0.37144345    0.40784840    0.43758154
    0.45861401    0.47044786    0.47417070    0.47178734    0.46541578    0.45685303    0.44750332    0.43845319
    0.43054968    0.42444131    0.42059083    0.41927640    0.41927640    0.42072243    0.42455389    0.42917752
    0.43172317    0.42803777    0.41394424    0.38853116    0.35577469    0.32090050    0.28681456    0.28319167
    0.33617268    0.38991499    0.43638639    0.46804661    0.48338692    0.48604120    0.48050673    0.47023549
    0.47023549    0.47304241    0.47367809    0.47221665    0.46870468    0.46316298    0.45561004    0.44610038
    0.43476622    0.42184459    0.40727101    0.38628233    0.36636312    0.34776607    0.33076949    0.31570780
    0.30300766    0.29321346    0.28695516    0.28479160    0.28479160    0.29590006    0.32494737    0.36571713
    0.41431288    0.44517314    0.44958982    0.45337418    0.45607274    0.45734921    0.45703906    0.45514601
    0.45178800    0.44715313    0.44152010    0.43533027    0.42923333    0.42403168    0.42051860    0.41927640
    0.32607989    0.38179176    0.36985994    0.34733684    0.33129149    0.37144345    0.40784840    0.43758154
    0.45861401    0.47044786    0.47417070    0.47178734    0.46541578    0.45685303    0.44750332    0.43845319
    0.43054968    0.42444131    0.42059083    0.41927640    0.41927640    0.42313555    0.43449216    0.45275203
    0.47711028    0.50671849    0.54078768    0.57860653    0.61948763    0.66266233    0.70714951    0.75170300
    0.79529261    0.83890534    0.85675461    0.79760055    0.73854621    0.67983969    0.62190255    0.56526291
    0.56526291    0.57496644    0.57021018    0.55685837    0.53886755    0.51836140    0.49651238    0.47403956
    0.45143691    0.42907858    0.40767399    0.39265598    0.37719199    0.36161148    0.34610533    0.33069845
    0.31539931    0.30083843    0.28934651    0.28479160    0.28479160    0.29590006    0.32494737    0.36571713
    0.41431288    0.46769862    0.52218683    0.57238981    0.61085108    0.62994668    0.62674804    0.60556545
    0.57416265    0.53932445    0.50561429    0.47581306    0.45154994    0.43375003    0.42291235    0.41927640
    0.41255078    0.39159368    0.44792756    0.47171623    0.49106803    0.51115591    0.53298779    0.55801371
    0.58827677    0.62662177    0.67689749    0.74388755    0.79683407    0.70557222    0.62351753    0.55299809
    0.49591704    0.45383228    0.42799555    0.41927640    0.41927640    0.42672261    0.44900436    0.48584341
    0.53647384    0.59932835    0.67176667    0.74992223    0.82877171    0.90253429    0.96541188    1.01250257
    0.97599304    0.91606949    0.88696428    0.94365743    0.96385257    0.90826069    0.84347477    0.77156342
    0.77156342    0.80667067    0.85852167    0.92089785    0.98942490    0.98161053    0.93781574    0.89750710
    0.86255116    0.83322643    0.80890995    0.78754460    0.75897597    0.69792395    0.62499041    0.55762789
    0.50195624    0.46156842    0.43778239    0.43004191    0.43004191    0.43081242    0.43302780    0.43642400
    0.44062183    0.46769862    0.52218683    0.57238981    0.61085108    0.62994668    0.62674804    0.60556545
    0.57416265    0.53932445    0.50561429    0.47581306    0.45154994    0.43375003    0.42291235    0.41927640
    0.41255078    0.43278743    0.45242903    0.52590677    0.61713337    0.72289223    0.84419101    0.98153204
    1.13461395    1.09630660    0.99544612    0.89451513    0.83238067    0.94477464    1.07798066    1.22257576
    1.36524705    1.49053258    1.57985749    1.61301850    1.61301850    1.57898261    1.48673308    1.35987437
    1.22515341    1.10651183    1.02232751    0.98098028    0.97863833    1.00468905    1.04853876    1.03726257
    1.04057789    1.04844121    1.03678187    1.00765968    1.00914806    1.08254554    1.04752778    0.92883946
    0.92883946    0.96886483    1.00701478    1.03308201    1.02168952    1.06149374    1.13538240    1.12834241
    1.08451369    1.02449539    0.95425007    0.87924483    0.81240938    0.78190383    0.77037195    0.76392257
    0.75995999    0.75757875    0.75631262    0.75591652    0.75591652    0.75767630    0.76283604    0.77110035
    0.78217000    0.79597185    0.81287643    0.83383043    0.86035134    0.89437868    0.93802543    0.99327823
    1.06162876    1.14353441    1.23759617    1.33947507    1.44088872    1.52951593    1.59093933    1.61301850
    1.69722953    1.66248873    1.62109701    1.57164208    1.46922901    1.36078325    1.28267326    1.23571078
    1.19397969    1.22629899    1.25519795    1.29894150    1.35164253    1.40790350    1.46304051    1.51316346
    1.55518669    1.58679452    1.60638505    1.61301850    1.61301850    1.60230069    1.57321459    1.53169425
    1.48208413    1.42636305    1.36545573    1.30051571    1.23338514    1.16619296    1.10058955    1.10220695
    1.11412316    1.14123144    1.20556023    1.30462978    1.27198696    1.16292085    1.16458609    1.25662026
    1.25662026    1.21875351    1.17421493    1.13580661    1.12990589    1.14502828    1.14893351    1.20976830
    1.28351426    1.35557873    1.42497772    1.49076638    1.55202602    1.60785166    1.65734070    1.69958788
    1.73369637    1.75881725    1.77422522    1.77942100    1.77942100    1.75523186    1.69336959    1.61219802
    1.52483129    1.43958293    1.36284406    1.30105391    1.26147111    1.25043864    1.26870667    1.30927764
    1.36178202    1.41746210    1.47062348    1.51796829    1.55747882    1.58752954    1.60650417    1.61301850
    1.69722953    1.72769975    1.74025667    1.60164687    1.46922901    1.36078325    1.28267326    1.23571078
    1.21811431    1.22629899    1.25519795    1.29894150    1.35164253    1.40790350    1.46304051    1.51316346
    1.55518669    1.58679452    1.60638505    1.61301850    1.61301850    1.60555492    1.58350496    1.54792065
    1.50061222    1.44413072    1.38164998    1.31679218    1.25349641    1.19604428    1.14934498    1.11948902
    1.16038396    1.21990360    1.27909801    1.33705427    1.39345147    1.44719365    1.49757044    1.54371094
    1.54371094    1.52459892    1.49817662    1.46818951    1.43850339    1.41457035    1.40495806    1.41620452
    1.44520554    1.48447930    1.52854149    1.57399517    1.61838077    1.65962051    1.69597570    1.72621451
    1.74970571    1.76631260    1.77616166    1.77942100    1.77942100    1.75523186    1.69336959    1.61219802
    1.52483129    1.43958293    1.36284406    1.30105391    1.26147111    1.25043864    1.26870667    1.30927764
    1.36178202    1.41746210    1.47062348    1.51796829    1.55747882    1.58752954    1.60650417    1.61301850
    1.89487958    1.85140928    1.74025667    1.60164687    1.51346460    1.44635198    1.37036793    1.28591827
    1.21811431    1.30199701    1.48081356    1.66664029    1.85363667    2.03497151    2.20343950    2.35209096
    2.47472590    2.56621548    2.62271194    2.64181653    2.64181653    2.63782570    2.61900175    2.57068906
    2.48441919    2.36826005    2.24172976    2.12134702    2.01313915    1.91528935    1.82361988    1.73486545
    1.64715010    1.55903935    1.46866705    1.37376503    1.42534184    1.54574916    1.64538518    1.71482646
    1.71482646    1.70533409    1.71111700    1.72741955    1.75033126    1.77749564    1.80757167    1.83981087
    1.87384833    1.90961492    1.94729392    1.98725272    2.02987128    2.07519942    2.12246454    2.16962399
    2.21326868    2.24907190    2.27271344    2.28098883    2.28098883    2.29988402    2.34597423    2.40153881
    2.45539368    2.50320777    2.54503793    2.58325794    2.62077646    2.65945302    2.69882469    2.73545554
    2.76343882    2.77642566    2.77065168    2.74736196    2.71310266    2.67775826    2.65149263    2.64181653
    1.89487958    1.85140928    1.75715458    1.78925115    1.82730716    1.87352312    1.92845301    1.99105471
    2.05965775    2.13393778    2.21726908    2.31781270    2.44574565    2.60315680    2.76567221    2.87407745
    2.87538684    2.78680472    2.68498419    2.64181653    2.64181653    2.67400792    2.76048054    2.87526002
    2.98605963    3.06623169    3.10566849    3.11232485    3.10250779    3.08896429    3.07496868    3.05504634
    3.01950069    2.96010370    2.87442564    2.76668810    2.64519689    2.51875950    2.39449027    2.27752886
    2.27752886    2.30863895    2.32851601    2.33923176    2.34297975    2.34181649    2.33750584    2.33145052
    2.32468535    2.31790856    2.31153418    2.30575463    2.30060789    2.29604586    2.29200030    2.28844054
    2.28541250    2.28304576    2.28151879    2.28098883    2.28098883    2.29988402    2.34597423    2.40153881
    2.45539368    2.50320777    2.54503793    2.58325794    2.62077646    2.65945302    2.69882469    2.73545554
    2.76343882    2.77642566    2.77065168    2.74736196    2.71310266    2.67775826    2.65149263    2.64181653
 
 Eigenvalues /eV
  -13.80448976  -14.21665227  -14.60077305  -14.95581467  -15.28100296  -15.57548132  -15.83799339  -16.06675170
  -16.25963820  -16.41481716  -16.53173511  -16.61234682  -16.66218866  -16.69051063  -16.70835757  -16.72451781
  -16.74203745  -16.75867455  -16.77048895  -16.77472206  -16.77472206  -16.76982087  -16.75452179  -16.72782518
  -16.68990113  -16.64256806  -16.58731994  -16.52215441  -16.44056898  -16.33418758  -16.19670102  -16.02620548
  -15.82528736  -15.59989498  -15.35812019  -15.10936898  -14.86381370  -14.63175252  -14.42258169  -14.24345140
  -14.24345140  -14.31782354  -14.41837170  -14.52937051  -14.64157731  -14.74975049  -14.85086598  -14.94315320
  -15.02560101  -15.09770475  -15.15933819  -15.21069161  -15.25224241  -15.28473538  -15.30915309  -15.32666005
  -15.33851002  -15.34591663  -15.34990173  -15.35114973  -15.35114973  -15.37262412  -15.43386031  -15.52673599
  -15.64122260  -15.76787585  -15.89898156  -16.02872357  -16.15292774  -16.26870190  -16.37408962  -16.46777242
  -16.54884970  -16.61674058  -16.67123851  -16.71267887  -16.74207725  -16.76105299  -16.77144514  -16.77472206
  -13.80448976  -13.36583904  -12.90287652  -12.41837884  -11.91562949  -11.39831431  -10.87043382  -10.33622547
   -9.80007447   -9.26640865   -8.73960785   -8.22399377   -7.72398836   -7.24454606   -6.79199467   -6.37545396
   -6.00891936   -5.71347623   -5.51717431   -5.44767395   -5.44767395   -5.56402460   -5.87259016   -6.29940882
   -6.78877695   -7.30729686   -7.83475646   -8.35782676   -8.86706808   -9.35581130   -9.81998672  -10.25831092
  -10.67227515  -11.06536718  -11.44129631  -11.80181412  -12.14538651  -12.46756009  -12.76261326  -13.02530846
  -13.02530846  -12.92170581  -12.79057644  -12.65079053  -12.51455312  -12.38948115  -12.27998659  -12.18799505
  -12.11346268  -12.05491708  -12.01002488  -11.97610159  -11.95050249  -11.93089051  -11.91541334  -11.90282196
  -11.89253158  -11.88458289  -11.87944385  -11.87765280  -11.87765280  -11.83508131  -11.71067256  -11.51291618
  -11.25248861  -10.93981258  -10.58397533  -10.19263355   -9.77234406   -9.32899041   -8.86818009   -8.39558884
   -7.91728619   -7.44015196   -6.97261089   -6.52606114   -6.11750889   -5.77373157   -5.53494606   -5.44767395
   -8.39246203   -8.38364506   -8.35581351   -8.30586048   -8.23091178   -8.12949813   -8.00162669   -7.84836532
   -7.67144891   -7.47307173   -7.25585129   -7.02291736   -6.77810505   -6.52627293   -6.27381575   -6.02948589
   -5.80561299   -5.61944337   -5.49298315   -5.44767395   -5.44767395   -5.49874628   -5.64234809   -5.85662726
   -6.11901354   -6.41161282   -6.72122928   -7.03778539   -7.35305956   -7.66008136   -7.95280899   -8.22577589
   -8.47371554   -8.69127757   -8.87290254   -9.01291128   -9.10590731   -9.14761802   -9.13621647   -9.07391475
   -9.07391475   -9.09332316   -9.09235647   -9.06805242   -9.01791305   -8.94035642   -8.83514442   -8.70364478
   -8.54882573   -8.37499866   -8.18743312   -7.99199545   -7.79490794   -7.60264764   -7.42194132   -7.25977175
   -7.12327643   -7.01940198   -6.95422050   -6.93198033   -6.93198033   -6.92485004   -6.90350028   -6.86806380
   -6.81879186   -6.75609366   -6.68058090   -6.59311072   -6.49482303   -6.38717416   -6.27197301   -6.15142892
   -6.02822088   -5.90559363   -5.78747418   -5.67857358   -5.58438291   -5.51089857   -5.46388683   -5.44767395
   -8.39246203   -8.38364506   -8.35581351   -8.30586048   -8.23091178   -8.12949813   -8.00162669   -7.84836532
   -7.67144891   -7.47307173   -7.25585129   -7.02291736   -6.77810505   -6.52627293   -6.27381575   -6.02948589
   -5.80561299   -5.61944337   -5.49298315   -5.44767395   -5.44767395   -5.45847827   -5.49082588   -5.54450792
   -5.61913430   -5.71407506   -5.82838919   -5.96075432   -6.10941300   -6.27215084   -6.44631744   -6.62889362
   -6.81659894   -7.00602414   -7.19376759   -7.37655365   -7.55131500   -7.71523008   -7.86571864   -8.00041501
   -8.00041501   -7.95504429   -7.90326239   -7.84558119   -7.78261912   -7.71510329   -7.64387117   -7.56987212
   -7.49416832   -7.41793391   -7.34245078   -7.26909884   -7.19933815   -7.13468042   -7.07664747   -7.02671594
   -6.98624922   -6.95642124   -6.93813985   -6.93198033   -6.93198033   -6.92485004   -6.90350028   -6.86806380
   -6.81879186   -6.75609366   -6.68058090   -6.59311072   -6.49482303   -6.38717416   -6.27197301   -6.15142892
   -6.02822088   -5.90559363   -5.78747418   -5.67857358   -5.58438291   -5.51089857   -5.46388683   -5.44767395
   -2.16098392   -2.29253564   -2.41212380   -2.51879782   -2.61190658   -2.69115683   -2.75662778   -2.80873357
   -2.84815342   -2.87577764   -2.89272987   -2.90049857   -2.90111605   -2.89717414   -2.89142832   -2.88606136
   -2.88215006   -2.87977954   -2.87858773   -2.87823247   -2.87823247   -2.86664202   -2.83201249   -2.77475488
   -2.69550875   -2.59508431   -2.47440203   -2.40858610   -2.35922643   -2.30436135   -2.24470003   -2.18337355
   -2.12550885   -2.07693904   -2.04226321   -2.02337299   -2.01932066   -2.02725827   -2.04358958   -2.06478160
   -2.06478160   -2.05720416   -2.04943199   -2.04167133   -2.03453517   -2.02907174   -2.02685414   -2.03013374
   -2.04203530   -2.06667783   -2.10887852   -2.17284176   -2.25965672   -2.36514970   -2.48037211   -2.59427521
   -2.69608530   -2.77643373   -2.82790731   -2.84563650   -2.84563650   -2.84545059   -2.84482540   -2.84354777
   -2.84123008   -2.83727532   -2.83085946   -2.82096677   -2.80652396   -2.78667884   -2.76125292   -2.73135207
   -2.70004612   -2.67294044   -2.65835522   -2.66649222   -2.74132973   -2.81481827   -2.86195438   -2.87823247
   -2.16098392   -2.01864239   -1.86684539   -1.70706527   -1.54094405   -1.37037954   -1.19765538   -1.02560387
   -0.85780693   -0.69887666   -0.94611397   -1.24421023   -1.52871142   -1.80153357   -2.06232333   -2.30737124
   -2.52826169   -2.71054552   -2.83402133   -2.87823247   -2.87823247   -2.84035978   -2.73569854   -2.63154507
   -2.55663078   -2.50095429   -2.45426742   -2.33444380   -2.17621824   -2.00072755   -1.80891361   -1.60156428
   -1.37917556   -1.14178460   -0.88880428   -0.61889569   -0.32991268   -0.01895729    0.31738406    0.18374192
    0.18374192    0.36883970    0.40675672    0.26089285    0.11468786   -0.02987737   -0.17154729   -0.30940125
   -0.44261554   -0.58297656   -0.77797479   -0.93884561   -1.06226136   -1.15015110   -1.20881879   -1.24603589
   -1.26862912   -1.28160239   -1.28819934   -1.29020870   -1.29020870   -1.30066199   -1.33143203   -1.38088372
   -1.44668838   -1.52626216   -1.61714431   -1.71721781   -1.82475155   -1.93830037   -2.05651740   -2.17792297
   -2.30065651   -2.42222728   -2.53928438   -2.64745221   -2.74132973   -2.81481827   -2.86195438   -2.87823247
    2.96406911    2.75645266    2.30771811    1.80948715    1.32663771    0.87428711    0.45435438    0.06539588
   -0.29526724   -0.63111660   -0.94611397   -1.24421023   -1.52871142   -1.80153357   -2.06232333   -2.30737124
   -2.52826169   -2.71054552   -2.83402133   -2.87823247   -2.87823247   -2.83178219   -2.73038564   -2.58401201
   -2.40383642   -2.20602544   -1.99284194   -1.76051807   -1.50400065   -1.22119275   -0.91414865   -0.58769329
   -0.24773805    0.09921547    0.44472134    0.77292170    1.03890847    1.09213569    0.74540444    0.68247248
    0.68247248    0.54900965    0.51294974    0.57636089    0.51806982    0.34942267    0.12283754   -0.12128680
   -0.36092074   -0.57033031   -0.69158269   -0.80528167   -0.91021129   -1.00505562   -1.08844270   -1.15900549
   -1.21545687   -1.25667307   -1.28177675   -1.29020870   -1.29020870   -1.30066199   -1.33143203   -1.38088372
   -1.44668838   -1.52626216   -1.61714431   -1.71721781   -1.82475155   -1.93830037   -2.05651740   -2.17792297
   -2.30065651   -2.42222728   -2.53928438   -2.64745221   -2.70587615   -2.77420777   -2.84621085   -2.87823247
    2.96406911    2.75645266    2.30771811    1.80948715    1.32663771    0.87428711    0.45435438    0.06539588
   -0.29526724   -0.63111660   -0.55491416   -0.43430080   -0.34891661   -0.31524420   -0.35252200   -0.47195251
   -0.65785505   -0.86159320   -1.01973171   -1.07939861   -1.07939861   -1.01038498   -0.80830544   -0.49863418
   -0.13576493    0.21014840    0.48305604    0.67248880    0.80578290    0.91684309    1.03205314    1.16910743
    1.33692295    1.53459105    1.75182660    1.97282201    2.18203211    2.36848636    2.52689782    2.65641245
    2.65641245    2.38444576    2.09599644    1.90081152    1.84243300    1.91083774    2.05552053    2.23886547
    2.44264521    2.65866018    2.88306554    3.11380344    3.34928581    3.58734998    3.82377728    4.04941340
    4.23033327    4.35158622    4.43416631    4.46370786    4.46370786    4.32080785    4.00088907    3.64957458
    3.33102661    3.06188491    2.84106162    2.66189764    2.51673827    2.34438095    1.86657725    1.38925790
    0.91971584    0.46673198    0.04185211   -0.33929768   -0.65706845   -0.89203113   -1.03300435   -1.07939861
    5.76050888    6.09095416    6.54558294    5.66780067    4.94209436    4.34396140    3.85231536    3.44922811
    3.11960568    2.85084171    2.63247864    2.45589477    2.31402672    2.20113107    2.11258481    2.04472252
    1.99470667    1.96042745    1.94042854    1.93385602    1.93385602    1.94112438    1.96040552    1.98570117
    2.01083010    2.03189437    2.04785345    2.05982182    2.07006781    2.08124964    2.09599658    2.11675923
    2.14582543    2.18542532    2.23788785    2.30584994    2.39255884    2.50235077    2.53208937    2.81890832
    2.81890832    2.77372165    2.76382242    2.78049227    2.81783604    2.87222382    2.94152903    3.02455675
    3.12064030    3.22934778    3.35024221    3.48264495    3.62535323    3.77625592    3.93178264    4.08613199
    4.24519359    4.38211890    4.44749403    4.46370786    4.46370786    4.32080785    4.00088907    3.64957458
    3.33102661    3.06188491    2.84106162    2.66189764    2.51673827    2.39859102    2.30162496    2.22121739
    2.15385164    2.09699648    2.04901142    2.00907018    1.97706078    1.95340978    1.93880490    1.93385602
    5.76050888    6.09095416    6.88857878    7.90916171    8.81778347    8.16492307    7.49597569    6.81550188
    6.12971289    5.44662187    4.77642479    4.13238838    3.53241780    3.00075158    2.56683813    2.25524644
    2.06740208    1.97585754    1.94153711    1.93385602    1.93385602    1.94175173    1.97135519    2.04135975
    2.18603037    2.45491249    2.89423041    3.51778849    4.31381871    5.27434375    6.40401279    6.91674183
    6.06172525    5.23075636    4.42270712    3.65112323    2.96518238    2.52509904    2.64143640    2.81917469
    2.81917469    2.95583309    3.16751369    3.38044704    3.58964439    3.79235244    3.98621888    4.16901218
    4.33852181    4.49250375    4.62866917    4.74475814    4.83879722    4.90975534    4.95904086    4.99359503
    5.03051344    5.09366539    5.17724879    5.21948519    5.21948519    5.16878661    5.02073667    4.78617961
    4.47972298    4.11663969    3.71083446    3.27404134    2.81588576    2.39859102    2.30162496    2.22121739
    2.15385164    2.09699648    2.04901142    2.00907018    1.97706078    1.95340978    1.93880490    1.93385602
    8.87308520    7.60349465    6.88857878    7.90916171    9.01490007   10.10749059   11.09811969   11.90719966
   12.47952215   12.80153748   12.90284113   12.83798667   12.66460784   12.43160346   12.17718489   11.93091845
   11.71585293   11.54963573   11.44485877   11.40909126   11.40909126   11.44843980   11.55269917   11.67851456
   11.74778528   11.64750038   11.26399591   10.57247078    9.68112196    8.73214685    7.80462124    7.70603729
    9.14772396   10.61012665   11.87467784   12.73619639   13.15362743   13.22585394   13.07525339   12.79575874
   12.79575874   12.87213898   12.88943653   12.84966894   12.75410322   12.60330605   12.39777986   12.13900896
   11.83059065   11.47897522   11.08240803   10.51127710    9.96924783    9.46319634    9.00069574    8.59084639
    8.24525787    7.97874430    7.80844722    7.74957369    7.74957369    8.05185020    8.84226784    9.95166934
   11.27402696   12.11377753   12.23396135   12.33693910   12.41037068   12.44510511   12.43666555   12.38515296
   12.29377687   12.16765564   12.01437322   11.84593946   11.68003309   11.53848905   11.44289343   11.40909126
    8.87308520   10.38908249   10.06440094    9.45151633    9.01490007   10.10749059   11.09811969   11.90719966
   12.47952215   12.80153748   12.90284113   12.83798667   12.66460784   12.43160346   12.17718489   11.93091845
   11.71585293   11.54963573   11.44485877   11.40909126   11.40909126   11.51410425   11.82313309   12.32000955
   12.98283126   13.78851170   14.71558151   15.74468487   16.85711620   18.03195951   19.24251723   20.45487928
   21.64101304   22.82777567   23.31347909   21.70381523   20.09686501   18.49937923   16.92282930   15.38158651
   15.38158651   15.64563290   15.51620834   15.15288724   14.66333223   14.10533138   13.51078940   12.89927280
   12.28422326   11.67582210   11.09337375   10.68471285   10.26391632    9.83994892    9.41800526    8.99876278
    8.58245201    8.18623033    7.87351926    7.74957369    7.74957369    8.05185020    8.84226784    9.95166934
   11.27402696   12.72672701   14.20942653   15.57551910   16.62210349   17.14172129   17.05468184   16.47827442
   15.62376073   14.67576498   13.75846495   12.94753211   12.28729907   11.80293877   11.50803068   11.40909126
   11.22607783   10.65580618   12.18872913   12.83605165   13.36264089   13.90925991   14.50333577   15.18432552
   16.00782551   17.05124605   18.41931794   20.24221011   21.68295829   19.19959698   16.96677526   15.04784356
   13.49458936   12.34940464   11.64635159   11.40909126   11.40909126   11.61171309   12.21803029   13.22047186
   14.59819591   16.30855421   18.27970110   20.40642218   22.55202575   24.55920770   26.27019386   27.55159669
   26.55812182   24.92751906   24.13552601   25.67822513   26.22776285   24.71503091   22.95211624   20.99530895
   20.99530895   21.95062580   23.36156324   25.05890542   26.92362137   26.71098158   25.51926482   24.42241092
   23.47121114   22.67324469   22.01155974   21.43017881   20.65278690   18.99147709   17.00685431   15.17382688
   13.65892429   12.55991567   11.91266496   11.70203568   11.70203568   11.72300233   11.78328605   11.87570132
   11.98993005   12.72672701   14.20942653   15.57551910   16.62210349   17.14172129   17.05468184   16.47827442
   15.62376073   14.67576498   13.75846495   12.94753211   12.28729907   11.80293877   11.50803068   11.40909126
   11.22607783   11.77674514   12.31122030   14.31065123   16.79305344   19.67089855   22.97160616   26.70884570
   30.87441640   29.83202054   27.08746717   24.34099520   22.65023048   25.70862592   29.33334624   33.26797917
   37.15026243   40.55945511   42.99010958   43.89246649   43.89246649   42.96630281   40.45606543   37.00406430
   33.33812038   30.10971890   27.81894697   26.69383156   26.63010390   27.33897996   28.53219145   28.22535054
   28.31556496   28.52953700   28.21227006   27.41981508   27.46031594   29.45756303   28.50468124   25.27500773
   25.27500773   26.36415343   27.40226644   28.11159190   27.80158646   28.88471442   30.89532702   30.70375927
   29.51111892   27.87793787   25.96646543   23.92546912   22.10678408   21.27668572   20.96288729   20.78739089
   20.67956349   20.61476665   20.58031344   20.56953501   20.56953501   20.61742119   20.75782477   20.98270803
   21.28392875   21.65949600   22.11949313   22.68968035   23.41135124   24.33728222   25.52497061   27.02847575
   28.88838840   31.11715448   33.67670515   36.44897119   39.20857708   41.62024620   43.29166193   43.89246649
   46.18396545   45.23862012   44.11229399   42.76655681   39.97975559   37.02879614   34.90331513   33.62540112
   32.48984054   33.36929326   34.15567400   35.34599659   36.78006452   38.31100344   39.81135797   41.17527282
   42.31878305   43.17887574   43.71196117   43.89246649   43.89246649   43.60082014   42.80934706   41.67952108
   40.32956118   38.81331333   37.15594102   35.38883299   33.56211722   31.73372516   29.94856544   29.99257720
   30.31683373   31.05448745   32.80496306   35.50078270   34.61252632   31.64468651   31.68999995   34.19437696
   34.19437696   33.16397047   31.95201393   30.90687048   30.74630374   31.15780474   31.26407152   32.91947043
   34.92620015   36.88717395   38.77561668   40.56581726   42.23277668   43.75186966   45.09853509   46.24813942
   47.17627853   47.85985246   48.27912478   48.42050907   48.42050907   47.76228913   46.07893090   43.87014029
   41.49277039   39.17304476   37.08487369   35.40347816   34.32637531   34.02616670   34.52326512   35.62725736
   37.05597402   38.57110632   40.01770089   41.30601891   42.38115513   43.19887668   43.71520278   43.89246649
   46.18396545   47.01310209   47.35479328   43.58302885   39.97975559   37.02879614   34.90331513   33.62540112
   33.14657674   33.36929326   34.15567400   35.34599659   36.78006452   38.31100344   39.81135797   41.17527282
   42.31878305   43.17887574   43.71196117   43.89246649   43.89246649   43.68937221   43.08936224   42.12106411
   40.83373615   39.29679631   37.59660875   35.83173818   34.10937269   32.54602084   31.27526829   30.46284620
   31.57565398   33.19526593   34.80602788   36.38309787   37.91774379   39.38014296   40.75096509   42.00651198
   42.00651198   41.48644754   40.76745995   39.95146927   39.14366878   38.49241774   38.23085387   38.53688560
   39.32604351   40.39473709   41.59373009   42.83058764   44.03838147   45.16057193   46.14984691   46.97268679
   47.61191472   48.06381131   48.33181795   48.42050907   48.42050907   47.76228913   46.07893090   43.87014029
   41.49277039   39.17304476   37.08487369   35.40347816   34.32637531   34.02616670   34.52326512   35.62725736
   37.05597402   38.57110632   40.01770089   41.30601891   42.38115513   43.19887668   43.71520278   43.89246649
   51.56229686   50.37940985   47.35479328   43.58302885   41.18346719   39.35723978   37.28960851   34.99161650
   33.14657674   35.42914135   40.29498712   45.35158976   50.44002021   55.37439218   59.95863939   64.00365140
   67.34071808   69.83027626   71.36762305   71.88748525   71.88748525   71.77888941   71.26666364   69.95200846
   67.60448579   64.44363484   61.00057039   57.72478937   54.78030355   52.11767506   49.62322167   47.20809081
   44.82123459   42.42361918   39.96446383   37.38204840   38.78552475   42.06197478   44.77320874   46.66280202
   46.66280202   46.40450169   46.56186261   47.00547761   47.62893679   48.36811722   49.18652780   50.06380107
   50.99000743   51.96326592   52.98856359   54.07589790   55.23560784   56.46904938   57.75519864   59.03847254
   60.22610495   61.20036037   61.84367939   62.06886399   62.06886399   62.58302838   63.83720690   65.34919594
   66.81466165   68.11574913   69.25400560   70.29402515   71.31495606   72.36739861   73.43875640   74.43553257
   75.19699625   75.55038615   75.39326823   74.75952275   73.82727964   72.86550958   72.15078549   71.88748525
   51.56229686   50.37940985   47.81460893   48.68800095   49.72355785   50.98115790   52.47587641   54.17935514
   56.04613898   58.06740143   60.33496153   63.07089257   66.55212535   70.83550061   75.25776999   78.20762662
   78.24325676   75.83281469   73.06213715   71.88748525   71.88748525   72.76345764   75.11649736   78.23980592
   81.25481666   83.43640949   84.50953950   84.69066806   84.42353241   84.05499496   83.67415501   83.13204071
   82.16479425   80.54851993   78.21710133   75.28541356   71.97946962   68.53893320   65.15739529   61.97471360
   61.97471360   62.82126214   63.36214442   63.65373476   63.75572288   63.72406897   63.60677018   63.44199666
   63.25790679   63.07350098   62.90004529   62.74277571   62.60272591   62.47858661   62.36850150   62.27163557
   62.18923826   62.12483606   62.08328512   62.06886399   62.06886399   62.58302838   63.83720690   65.34919594
   66.81466165   68.11574913   69.25400560   70.29402515   71.31495606   72.36739861   73.43875640   74.43553257
   75.19699625   75.55038615   75.39326823   74.75952275   73.82727964   72.86550958   72.15078549   71.88748525
 
 Fillings
     2.00000     2.00000     2.00000     2.00000     2.00000     2.00000     2.00000     2.00000
     2.00000     2.00000     2.00000     2.00000     2.00000     2.00000     2.00000     2.00000
     2.00000     2.00000     2.00000     2.00000     2.00000     2.00000     2.00000     2.00000
     2.00000     2.00000     2.00000     2.00000     2.00000     2.00000     2.00000     2.00000
     2.00000     2.00000     2.00000     2.00000     2.00000     2.00000     2.00000     2.00000
     2.00000     2.00000     2.00000     2.00000     2.00000     2.00000     2.00000     2.00000
     2.00000     2.00000     2.00000     2.00000     2.00000     2.00000     2.00000     2.00000
     2.00000     2.00000     2.00000     2.00000     2.00000     2.00000     2.00000     2.00000
     2.00000     2.00000     2.00000     2.00000     2.00000     2.00000     2.00000     2.00000
     2.00000     2.00000     2.00000     2.00000     2.00000     2.00000     2.00000     2.00000
     2.00000     2.00000     2.00000     2.00000     2.00000     2.00000     2.00000     2.00000
     2.00000     2.00000     2.00000     2.00000     2.00000     2.00000     2.00000     2.00000
     2.00000     2.00000     2.00000     2.00000     2.00000     2.00000     2.00000     2.00000
     2.00000     2.00000     2.00000     2.00000     2.00000     2.00000     2.00000     2.00000
     2.00000     2.00000     2.00000     2.00000     2.00000     2.00000     2.00000     2.00000
     2.00000     2.00000     2.00000     2.00000     2.00000     2.00000     2.00000     2.00000
     2.00000     2.00000     2.00000     2.00000     2.00000     2.00000     2.00000     2.00000
     2.00000     2.00000     2.00000     2.00000     2.00000     2.00000     2.00000     2.00000
     2.00000     2.00000     2.00000     2.00000     2.00000     2.00000     2.00000     2.00000
     2.00000     2.00000     2.00000     2.00000     2.00000     2.00000     2.00000     2.00000
     2.00000     2.00000     2.00000     2.00000     2.00000     2.00000     2.00000     2.00000
     2.00000     2.00000     2.00000     2.00000     2.00000     2.00000     2.00000     2.00000
     2.00000     2.00000     2.00000     2.00000     2.00000     2.00000     2.00000     2.00000
     2.00000     2.00000     2.00000     2.00000     2.00000     2.00000     2.00000     2.00000
     2.00000     2.00000     2.00000     2.00000     2.00000     2.00000     2.00000     2.00000
     2.00000     2.00000     2.00000     2.00000     2.00000     2.00000     2.00000     2.00000
     2.00000     2.00000     2.00000     2.00000     2.00000     2.00000     2.00000     2.00000
     2.00000     2.00000     2.00000     2.00000     2.00000     2.00000     2.00000     2.00000
     2.00000     2.00000     2.00000     2.00000     2.00000     2.00000     2.00000     2.00000
     2.00000     2.00000     2.00000     2.00000     2.00000     2.00000     2.00000     2.00000
     2.00000     2.00000     2.00000     2.00000     2.00000     2.00000     2.00000     2.00000
     2.00000     2.00000     2.00000     2.00000     2.00000     2.00000     2.00000     2.00000
     2.00000     2.00000     2.00000     2.00000     2.00000     2.00000     2.00000     2.00000
     2.00000     2.00000     2.00000     2.00000     2.00000     2.00000     2.00000     2.00000
     2.00000     2.00000     2.00000     2.00000     2.00000     2.00000     2.00000     2.00000
     2.00000     2.00000     2.00000     2.00000     2.00000     2.00000     2.00000     2.00000
     2.00000     2.00000     2.00000     2.00000     2.00000     2.00000     2.00000     2.00000
     2.00000     2.00000     2.00000     2.00000     2.00000     2.00000     2.00000     2.00000
     2.00000     2.00000     2.00000     2.00000     2.00000     2.00000     2.00000     2.00000
     2.00000     2.00000     2.00000     2.00000     2.00000     2.00000     2.00000     2.00000
     0.00000     0.00000     0.00000     0.00000     0.00000     0.00000     0.00000     0.00000
     0.00000     0.00000     0.00000     0.00000     0.00000     0.00000     0.00000     0.00000
     0.00000     0.00000     0.00000     0.00000     0.00000     0.00000     0.00000     0.00000
     0.00000     0.00000     0.00000     0.00000     0.00000     0.00000     0.00000     0.00000
     0.00000     0.00000     0.00000     0.00000     0.00000     0.00000     0.00000     0.00000
     0.00000     0.00000     0.00000     0.00000     0.00000     0.00000     0.00000     0.00000
     0.00000     0.00000     0.00000     0.00000     0.00000     0.00000     0.00000     0.00000
     0.00000     0.00000     0.00000     0.00000     0.00000     0.00000     0.00000     0.00000
     0.00000     0.00000     0.00000     0.00000     0.00000     0.00000     0.00000     0.00000
     0.00000     0.00000     0.00000     0.00000     0.00000     0.00000     0.00000     0.00000
     0.00000     0.00000     0.00000     0.00000     0.00000     0.00000     0.00000     0.00000
     0.00000     0.00000     0.00000     0.00000     0.00000     0.00000     0.00000     0.00000
     0.00000     0.00000     0.00000     0.00000     0.00000     0.00000     0.00000     0.00000
     0.00000     0.00000     0.00000     0.00000     0.00000     0.00000     0.00000     0.00000
     0.00000     0.00000     0.00000     0.00000     0.00000     0.00000     0.00000     0.00000
     0.00000     0.00000     0.00000     0.00000     0.00000     0.00000     0.00000     0.00000
     0.00000     0.00000     0.00000     0.00000     0.00000     0.00000     0.00000     0.00000
     0.00000     0.00000     0.00000     0.00000     0.00000     0.00000     0.00000     0.00000
     0.00000     0.00000     0.00000     0.00000     0.00000     0.00000     0.00000     0.00000
     0.00000     0.00000     0.00000     0.00000     0.00000     0.00000     0.00000     0.00000
     0.00000     0.00000     0.00000     0.00000     0.00000     0.00000     0.00000     0.00000
     0.00000     0.00000     0.00000     0.00000     0.00000     0.00000     0.00000     0.00000
     0.00000     0.00000     0.00000     0.00000     0.00000     0.00000     0.00000     0.00000
     0.00000     0.00000     0.00000     0.00000     0.00000     0.00000     0.00000     0.00000
     0.00000     0.00000     0.00000     0.00000     0.00000     0.00000     0.00000     0.00000
     0.00000     0.00000     0.00000     0.00000     0.00000     0.00000     0.00000     0.00000
     0.00000     0.00000     0.00000     0.00000     0.00000     0.00000     0.00000     0.00000
     0.00000     0.00000     0.00000     0.00000     0.00000     0.00000     0.00000     0.00000
     0.00000     0.00000     0.00000     0.00000     0.00000     0.00000     0.00000     0.00000
     0.00000     0.00000     0.00000     0.00000     0.00000     0.00000     0.00000     0.00000
     0.00000     0.00000     0.00000     0.00000     0.00000     0.00000     0.00000     0.00000
     0.00000     0.00000     0.00000     0.00000     0.00000     0.00000     0.00000     0.00000
     0.00000     0.00000     0.00000     0.00000     0.00000     0.00000     0.00000     0.00000
     0.00000     0.00000     0.00000     0.00000     0.00000     0.00000     0.00000     0.00000
     0.00000     0.00000     0.00000     0.00000     0.00000     0.00000     0.00000     0.00000
     0.00000     0.00000     0.00000     0.00000     0.00000     0.00000     0.00000     0.00000
     0.00000     0.00000     0.00000     0.00000     0.00000     0.00000     0.00000     0.00000
     0.00000     0.00000     0.00000     0.00000     0.00000     0.00000     0.00000     0.00000
     0.00000     0.00000     0.00000     0.00000     0.00000     0.00000     0.00000     0.00000
     0.00000     0.00000     0.00000     0.00000     0.00000     0.00000     0.00000     0.00000
     0.00000     0.00000     0.00000     0.00000     0.00000     0.00000     0.00000     0.00000
     0.00000     0.00000     0.00000     0.00000     0.00000     0.00000     0.00000     0.00000
     0.00000     0.00000     0.00000     0.00000     0.00000     0.00000     0.00000     0.00000
     0.00000     0.00000     0.00000     0.00000     0.00000     0.00000     0.00000     0.00000
     0.00000     0.00000     0.00000     0.00000     0.00000     0.00000     0.00000     0.00000
     0.00000     0.00000     0.00000     0.00000     0.00000     0.00000     0.00000     0.00000
     0.00000     0.00000     0.00000     0.00000     0.00000     0.00000     0.00000     0.00000
     0.00000     0.00000     0.00000     0.00000     0.00000     0.00000     0.00000     0.00000
     0.00000     0.00000     0.00000     0.00000     0.00000     0.00000     0.00000     0.00000
     0.00000     0.00000     0.00000     0.00000     0.00000     0.00000     0.00000     0.00000
     0.00000     0.00000     0.00000     0.00000     0.00000     0.00000     0.00000     0.00000
     0.00000     0.00000     0.00000     0.00000     0.00000     0.00000     0.00000     0.00000
     0.00000     0.00000     0.00000     0.00000     0.00000     0.00000     0.00000     0.00000
     0.00000     0.00000     0.00000     0.00000     0.00000     0.00000     0.00000     0.00000
     0.00000     0.00000     0.00000     0.00000     0.00000     0.00000     0.00000     0.00000
     0.00000     0.00000     0.00000     0.00000     0.00000     0.00000     0.00000     0.00000
     0.00000     0.00000     0.00000     0.00000     0.00000     0.00000     0.00000     0.00000
     0.00000     0.00000     0.00000     0.00000     0.00000     0.00000     0.00000     0.00000
     0.00000     0.00000     0.00000     0.00000     0.00000     0.00000     0.00000     0.00000
     0.00000     0.00000     0.00000     0.00000     0.00000     0.00000     0.00000     0.00000
     0.00000     0.00000     0.00000     0.00000     0.00000     0.00000     0.00000     0.00000
     0.00000     0.00000     0.00000     0.00000     0.00000     0.00000     0.00000     0.00000
     0.00000     0.00000     0.00000     0.00000     0.00000     0.00000     0.00000     0.00000
     0.00000     0.00000     0.00000     0.00000     0.00000     0.00000     0.00000     0.00000
     0.00000     0.00000     0.00000     0.00000     0.00000     0.00000     0.00000     0.00000
     0.00000     0.00000     0.00000     0.00000     0.00000     0.00000     0.00000     0.00000
     0.00000     0.00000     0.00000     0.00000     0.00000     0.00000     0.00000     0.00000
     0.00000     0.00000     0.00000     0.00000     0.00000     0.00000     0.00000     0.00000
     0.00000     0.00000     0.00000     0.00000     0.00000     0.00000     0.00000     0.00000
     0.00000     0.00000     0.00000     0.00000     0.00000     0.00000     0.00000     0.00000
     0.00000     0.00000     0.00000     0.00000     0.00000     0.00000     0.00000     0.00000
     0.00000     0.00000     0.00000     0.00000     0.00000     0.00000     0.00000     0.00000
     0.00000     0.00000     0.00000     0.00000     0.00000     0.00000     0.00000     0.00000
     0.00000     0.00000     0.00000     0.00000     0.00000     0.00000     0.00000     0.00000
     0.00000     0.00000     0.00000     0.00000     0.00000     0.00000     0.00000     0.00000
     0.00000     0.00000     0.00000     0.00000     0.00000     0.00000     0.00000     0.00000
     0.00000     0.00000     0.00000     0.00000     0.00000     0.00000     0.00000     0.00000
     0.00000     0.00000     0.00000     0.00000     0.00000     0.00000     0.00000     0.00000
     0.00000     0.00000     0.00000     0.00000     0.00000     0.00000     0.00000     0.00000
     0.00000     0.00000     0.00000     0.00000     0.00000     0.00000     0.00000     0.00000
     0.00000     0.00000     0.00000     0.00000     0.00000     0.00000     0.00000     0.00000
     0.00000     0.00000     0.00000     0.00000     0.00000     0.00000     0.00000     0.00000
     0.00000     0.00000     0.00000     0.00000     0.00000     0.00000     0.00000     0.00000
     0.00000     0.00000     0.00000     0.00000     0.00000     0.00000     0.00000     0.00000
     0.00000     0.00000     0.00000     0.00000     0.00000     0.00000     0.00000     0.00000
     0.00000     0.00000     0.00000     0.00000     0.00000     0.00000     0.00000     0.00000
     0.00000     0.00000     0.00000     0.00000     0.00000     0.00000     0.00000     0.00000
     0.00000     0.00000     0.00000     0.00000     0.00000     0.00000     0.00000     0.00000
     0.00000     0.00000     0.00000     0.00000     0.00000     0.00000     0.00000     0.00000
     0.00000     0.00000     0.00000     0.00000     0.00000     0.00000     0.00000     0.00000
     0.00000     0.00000     0.00000     0.00000     0.00000     0.00000     0.00000     0.00000
     0.00000     0.00000     0.00000     0.00000     0.00000     0.00000     0.00000     0.00000
     0.00000     0.00000     0.00000     0.00000     0.00000     0.00000     0.00000     0.00000
     0.00000     0.00000     0.00000     0.00000     0.00000     0.00000     0.00000     0.00000
     0.00000     0.00000     0.00000     0.00000     0.00000     0.00000     0.00000     0.00000
     0.00000     0.00000     0.00000     0.00000     0.00000     0.00000     0.00000     0.00000
     0.00000     0.00000     0.00000     0.00000     0.00000     0.00000     0.00000     0.00000
     0.00000     0.00000     0.00000     0.00000     0.00000     0.00000     0.00000     0.00000
     0.00000     0.00000     0.00000     0.00000     0.00000     0.00000     0.00000     0.00000
     0.00000     0.00000     0.00000     0.00000     0.00000     0.00000     0.00000     0.00000
     0.00000     0.00000     0.00000     0.00000     0.00000     0.00000     0.00000     0.00000
     0.00000     0.00000     0.00000     0.00000     0.00000     0.00000     0.00000     0.00000
     0.00000     0.00000     0.00000     0.00000     0.00000     0.00000     0.00000     0.00000
     0.00000     0.00000     0.00000     0.00000     0.00000     0.00000     0.00000     0.00000
     0.00000     0.00000     0.00000     0.00000     0.00000     0.00000     0.00000     0.00000
     0.00000     0.00000     0.00000     0.00000     0.00000     0.00000     0.00000     0.00000
     0.00000     0.00000     0.00000     0.00000     0.00000     0.00000     0.00000     0.00000
     0.00000     0.00000     0.00000     0.00000     0.00000     0.00000     0.00000     0.00000
     0.00000     0.00000     0.00000     0.00000     0.00000     0.00000     0.00000     0.00000
     0.00000     0.00000     0.00000     0.00000     0.00000     0.00000     0.00000     0.00000
     0.00000     0.00000     0.00000     0.00000     0.00000     0.00000     0.00000     0.00000
     0.00000     0.00000     0.00000     0.00000     0.00000     0.00000     0.00000     0.00000
     0.00000     0.00000     0.00000     0.00000     0.00000     0.00000     0.00000     0.00000
     0.00000     0.00000     0.00000     0.00000     0.00000     0.00000     0.00000     0.00000
     0.00000     0.00000     0.00000     0.00000     0.00000     0.00000     0.00000     0.00000
     0.00000     0.00000     0.00000     0.00000     0.00000     0.00000     0.00000     0.00000
     0.00000     0.00000     0.00000     0.00000     0.00000     0.00000     0.00000     0.00000
     0.00000     0.00000     0.00000     0.00000     0.00000     0.00000     0.00000     0.00000
     0.00000     0.00000     0.00000     0.00000     0.00000     0.00000     0.00000     0.00000
     0.00000     0.00000     0.00000     0.00000     0.00000     0.00000     0.00000     0.00000
     0.00000     0.00000     0.00000     0.00000     0.00000     0.00000     0.00000     0.00000
     0.00000     0.00000     0.00000     0.00000     0.00000     0.00000     0.00000     0.00000
     0.00000     0.00000     0.00000     0.00000     0.00000     0.00000     0.00000     0.00000
     0.00000     0.00000     0.00000     0.00000     0.00000     0.00000     0.00000     0.00000
     0.00000     0.00000     0.00000     0.00000     0.00000     0.00000     0.00000     0.00000
     0.00000     0.00000     0.00000     0.00000     0.00000     0.00000     0.00000     0.00000
     0.00000     0.00000     0.00000     0.00000     0.00000     0.00000     0.00000     0.00000
     0.00000     0.00000     0.00000     0.00000     0.00000     0.00000     0.00000     0.00000
     0.00000     0.00000     0.00000     0.00000     0.00000     0.00000     0.00000     0.00000
     0.00000     0.00000     0.00000     0.00000     0.00000     0.00000     0.00000     0.00000
     0.00000     0.00000     0.00000     0.00000     0.00000     0.00000     0.00000     0.00000
     0.00000     0.00000     0.00000     0.00000     0.00000     0.00000     0.00000     0.00000
     0.00000     0.00000     0.00000     0.00000     0.00000     0.00000     0.00000     0.00000
     0.00000     0.00000     0.00000     0.00000     0.00000     0.00000     0.00000     0.00000
     0.00000     0.00000     0.00000     0.00000     0.00000     0.00000     0.00000     0.00000
     0.00000     0.00000     0.00000     0.00000     0.00000     0.00000     0.00000     0.00000
     0.00000     0.00000     0.00000     0.00000     0.00000     0.00000     0.00000     0.00000
     0.00000     0.00000     0.00000     0.00000     0.00000     0.00000     0.00000     0.00000
     0.00000     0.00000     0.00000     0.00000     0.00000     0.00000     0.00000     0.00000
     0.00000     0.00000     0.00000     0.00000     0.00000     0.00000     0.00000     0.00000
 
 Nr. of electrons (up):      8.00000000
 Atom populations (up)
  Atom       Population
     1       4.00000000
     2       4.00000000
 
 l-shell populations (up)
  Atom Sh.   l       Population
     1   1   0       1.45231014
     1   2   1       2.73358862
     1   3   2      -0.18589876
     2   1   0       1.45231014
     2   2   1       2.73358862
     2   3   2      -0.18589876
 
 Orbital populations (up)
  Atom Sh.   l   m       Population
     1   1   0   0       1.45231014
     1   2   1  -1       0.89808407
     1   2   1   0       0.94986714
     1   2   1   1       0.88563740
     1   3   2  -2      -0.02064840
     1   3   2  -1      -0.04481083
     1   3   2   0      -0.02221002
     1   3   2   1      -0.05144893
     1   3   2   2      -0.04678058
     2   1   0   0       1.45231014
     2   2   1  -1       0.89808407
     2   2   1   0       0.94986714
     2   2   1   1       0.88563740
     2   3   2  -2      -0.02064840
     2   3   2  -1      -0.04481083
     2   3   2   0      -0.02221002
     2   3   2   1      -0.05144893
     2   3   2   2      -0.04678058
 
 Fermi energy:                      -0.2001980342 H           -5.4477 eV
 Band energy:                       -2.9256963619 H          -79.6122 eV
 TS:                                 0.0000000000 H            0.0000 eV
 Band free energy (E-TS):           -2.9256963619 H          -79.6122 eV
 Extrapolated E(0K):                -2.9256963619 H          -79.6122 eV
 Input/Output electrons (q):      8.00000000      8.00000000
 
 Energy H0:                         -2.6189850471 H          -71.2662 eV
 Energy SCC:                         0.0006445618 H            0.0175 eV
 Total Electronic energy:           -2.6183404853 H          -71.2487 eV
 Repulsive energy:                   0.0000000000 H            0.0000 eV
 Total energy:                      -2.6183404853 H          -71.2487 eV
 Total Mermin free energy:          -2.6183404853 H          -71.2487 eV
 
 SCC is NOT converged, maximal SCC iterations exceeded
 
